<?xml version="1.0" encoding="UTF-8" standalone="no"?>
<!-- Created with Inkscape (http://www.inkscape.org/) -->

<svg
   xmlns:dc="http://purl.org/dc/elements/1.1/"
   xmlns:cc="http://creativecommons.org/ns#"
   xmlns:rdf="http://www.w3.org/1999/02/22-rdf-syntax-ns#"
   xmlns:svg="http://www.w3.org/2000/svg"
   xmlns="http://www.w3.org/2000/svg"
   xmlns:sodipodi="http://sodipodi.sourceforge.net/DTD/sodipodi-0.dtd"
   xmlns:inkscape="http://www.inkscape.org/namespaces/inkscape"
   width="54.063244mm"
   height="12.428499mm"
   viewBox="0 0 54.063244 12.428499"
   version="1.1"
   id="svg2421"
   inkscape:version="0.92.4 5da689c313, 2019-01-14"
   sodipodi:docname="wescale-white.svg">
  <defs
     id="defs2415" />
  <sodipodi:namedview
     id="base"
     pagecolor="#ffffff"
     bordercolor="#666666"
     borderopacity="1.0"
     inkscape:pageopacity="0.0"
     inkscape:pageshadow="2"
     inkscape:zoom="0.35"
     inkscape:cx="-480.69037"
     inkscape:cy="-139.37021"
     inkscape:document-units="mm"
     inkscape:current-layer="layer1"
     showgrid="false"
     fit-margin-top="0"
     fit-margin-left="0"
     fit-margin-right="0"
     fit-margin-bottom="0"
     inkscape:window-width="2560"
     inkscape:window-height="1380"
     inkscape:window-x="0"
     inkscape:window-y="23"
     inkscape:window-maximized="1" />
  <metadata
     id="metadata2418">
    <rdf:RDF>
      <cc:Work
         rdf:about="">
        <dc:format>image/svg+xml</dc:format>
        <dc:type
           rdf:resource="http://purl.org/dc/dcmitype/StillImage" />
        <dc:title></dc:title>
      </cc:Work>
    </rdf:RDF>
  </metadata>
  <g
     inkscape:label="Layer 1"
     inkscape:groupmode="layer"
     id="layer1"
     transform="translate(-84.093375,-99.5298)">
    <g
       id="g5002"
       transform="matrix(0.36024243,0,0,0.36024243,78.84854,96.040762)">
      <path
         inkscape:export-ydpi="112"
         inkscape:export-xdpi="112"
         inkscape:connector-curvature="0"
         id="path4421"
         d="m 31.809289,9.6854244 a 17.249985,17.249905 0 0 0 -17.04604,14.7486006 64.073733,28.060117 0 0 0 10.351039,-0.56362 l 0.710281,-0.0335 v 6e-4 a 0.51963424,0.51963183 0 0 1 0.02442,-9e-4 0.51963424,0.51963183 0 0 1 0.518124,0.48951 h 6e-4 l 0.283303,5.30565 1.852438,-5.75228 7.49e-4,3e-4 a 0.51963424,0.51963183 0 0 1 0.433438,-0.35734 v -7.5e-4 l 0.459347,-0.063 a 64.073733,28.060117 0 0 0 2.961872,-0.40617 l 2.549944,-0.34968 1.5e-4,3e-4 a 0.51963424,0.51963183 0 0 1 0.08341,-0.007 0.51963424,0.51963183 0 0 1 0.518195,0.4898 l 7.49e-4,-4e-5 0.431519,6.98384 2.257339,-7.65377 a 0.51963424,0.51963183 0 0 1 0.406677,-0.37196 l -4.2e-5,-3e-4 0.09576,-0.0227 A 64.073733,28.060117 0 0 0 47.680815,20.223785 17.249985,17.249905 0 0 0 31.809372,9.6852504 Z"
         style="fill:#ffffff;fill-opacity:1;fill-rule:nonzero;stroke:none;stroke-width:0.13523848;stroke-linecap:square;stroke-linejoin:miter;stroke-miterlimit:4;stroke-dasharray:none;stroke-dashoffset:0;stroke-opacity:1" />
      <path
         inkscape:export-ydpi="112"
         inkscape:export-xdpi="112"
         id="path4306-6"
         d="m 48.021495,21.086265 a 42.198637,24.834343 0 0 1 -3.014032,0.78747 l -0.08959,0.0245 8.5e-5,3e-4 a 0.31637474,0.31676458 0 0 0 -0.212092,0.17948 l -3e-4,9e-5 -5.748291,13.43716 -0.01376,0.0337 h -3e-4 a 0.25525891,0.25525772 0 0 1 -0.0042,0.009 l -0.0022,0.005 -1.5e-4,-1.3e-4 a 0.25525891,0.25525772 0 0 1 -0.229619,0.14489 h -5.850191 a 0.25525891,0.25525772 0 0 1 -0.253707,-0.22772 h -1.5e-4 l -1.5e-4,-0.002 -0.848999,-9.34739 -3.026951,9.39949 h -4.49e-4 a 0.25525891,0.25525772 0 0 1 -0.24292,0.17783 h -5.850192 a 0.25525891,0.25525772 0 0 1 -8.99e-4,0 h -0.373014 v -6e-4 a 0.27754693,0.27788894 0 0 1 -0.01535,6e-4 0.27754693,0.27788894 0 0 1 -0.273929,-0.2342 l -1.645306,-9.19459 h -8.99e-4 a 0.38540195,0.38587686 0 0 0 -0.381538,-0.33465 0.38540195,0.38587686 0 0 0 -0.04033,0.003 v -4.5e-4 l -1.619847,0.13771 a 64.073733,28.060117 0 0 1 -2.510977,0.21361 l -0.775006,0.0659 -0.410029,0.0309 a 17.249985,17.249905 0 0 0 -0.02703,0.54057 17.249985,17.249905 0 0 0 17.250034,17.24989 17.249985,17.249905 0 0 0 17.249973,-17.2499 17.249985,17.249905 0 0 0 -1.037632,-5.84912 z"
         style="fill:#ffffff;fill-opacity:1;fill-rule:nonzero;stroke:none;stroke-width:0.13500001;stroke-linecap:square;stroke-linejoin:miter;stroke-miterlimit:4;stroke-dasharray:none;stroke-dashoffset:0;stroke-opacity:1"
         inkscape:connector-curvature="0" />
      <path
         inkscape:connector-curvature="0"
         id="path4209"
         d="m 145.7011,20.429345 -4.11856,14.53506 h 3.2212 l 4.11767,-14.53506 z m -79.809973,3.242 c -0.930756,0 -1.479941,0.40865 -2.062501,1.13877 l -5.209571,6.5707 -1.15166,-7.40156 h -3.113672 l 1.700684,10.19472 c 0.100441,0.66984 0.442018,1.09864 1.392773,1.09864 0.850402,0 1.526812,-0.4288 2.0625,-1.09864 l 5.356935,-6.77168 1.299024,6.77168 c 0.127225,0.62965 0.589075,1.09864 1.412696,1.09864 0.850402,0 1.573558,-0.46899 2.042285,-1.09864 l 7.70713,-10.19472 h -3.220606 l -5.56465,7.40156 -1.258593,-6.5707 c -0.154011,-0.77031 -0.502194,-1.13877 -1.392774,-1.13877 z m 17.375979,0.30791 c -4.044346,0 -5.510621,1.07183 -6.42129,4.27353 l -0.716601,2.53858 c -0.133915,0.44208 -0.214359,0.85089 -0.247852,1.2126 -0.207566,2.04968 1.038145,2.96044 4.13174,2.96044 h 9.5417 l 0.796875,-2.29072 H 80.200309 c -0.930747,0 -1.258803,-0.1207 -1.198535,-0.71016 0.01338,-0.18085 0.08049,-0.38154 0.348339,-1.37958 h 11.805178 l 1.017775,-3.60381 c 0.06696,-0.24784 0.107107,-0.48882 0.133887,-0.70987 0.133927,-1.35975 -0.662893,-2.29101 -3.481935,-2.29101 z m 14.999126,0 c -2.437369,0 -3.421688,0.7303 -3.950686,2.63261 -0.354885,1.2391 -0.435218,1.60069 -0.462011,1.92891 -0.120531,1.1923 0.455328,1.80176 2.511035,1.80176 h 6.4418 c 0.67631,0 0.92406,0.0606 0.88388,0.48926 -0.0134,0.12057 -0.0468,0.26097 -0.18076,0.79013 -0.20088,0.68993 -0.62967,0.97149 -1.4332,0.97149 h -9.474904 l -0.662696,2.37099 h 9.87657 c 3.22099,0 4.08434,-0.75006 4.70038,-2.92031 0.29462,-1.01144 0.37505,-1.41331 0.40899,-1.76162 0.14017,-1.42004 -0.58945,-1.96934 -2.95987,-1.96934 h -6.234076 c -0.508914,0 -0.69643,-0.0605 -0.65625,-0.42216 0.0067,-0.10048 0.04019,-0.22106 0.234375,-0.87071 0.153999,-0.50907 0.43525,-0.75 1.071387,-0.75 h 3.602344 v -3e-4 h 4.07666 1.79209 l 0.6498,-2.29071 h -2.44189 -3.42715 -0.96035 z m 18.046288,0 c -4.27925,0 -5.84608,1.25268 -6.85049,4.7625 -0.61603,2.10996 -0.73668,2.65922 -0.78311,3.1415 -0.22142,2.23054 1.03131,3.08115 4.52667,3.08115 h 8.32968 l 0.72334,-2.55205 h -8.22275 c -1.63385,0 -2.1634,-0.22082 -2.0625,-1.23896 0.0268,-0.26123 0.10007,-0.60969 0.61611,-2.33115 0.5089,-1.70128 1.13117,-2.27051 3.08643,-2.27051 h 8.20313 l 0.74296,-2.59248 z m 13.2375,0 -0.61611,2.15039 h 0.67646 0.14883 4.77012 2.04463 c 1.27225,0 1.72772,0.10022 1.64736,0.89062 -0.0268,0.24114 -0.0938,0.52275 -0.26074,1.11211 h -8.49697 c -3.18109,0 -4.27918,1.05807 -4.80147,2.9001 -0.36784,1.29947 -0.42878,1.5407 -0.45557,1.78184 -0.13392,1.33966 0.71695,2.15009 3.53555,2.15009 h 6.21416 c 4.04445,0 5.53084,-1.07163 6.44151,-4.25332 0.8571,-3.08122 0.93757,-3.4494 0.9706,-3.79101 0.20088,-2.00949 -1.04455,-2.94082 -4.17832,-2.94082 h -2.66074 -4.77012 -0.14883 z m 25.96055,0 c -4.05069,0 -5.51062,1.07183 -6.42129,4.27353 l -0.72304,2.53858 c -0.12767,0.44208 -0.20797,0.85089 -0.24815,1.2126 -0.20088,2.04968 1.04459,2.96044 4.13819,2.96044 h 9.53525 l 0.80332,-2.29072 h -10.15107 c -0.93745,0 -1.25884,-0.1207 -1.20528,-0.71016 0.0205,-0.18085 0.0802,-0.38154 0.34805,-1.37958 h 11.81192 l 1.01162,-3.60381 c 0.067,-0.24784 0.11335,-0.48882 0.13388,-0.70987 0.14017,-1.35975 -0.66332,-2.29101 -3.48193,-2.29101 z m -72.852839,2.33115 h 5.551174 c 0.61605,0 0.857223,0.10036 0.810351,0.56924 -0.0067,0.10047 -0.04019,0.201 -0.46875,1.76162 h -8.651368 l 0.167284,-0.58945 c 0.395067,-1.44005 1.024425,-1.74141 2.591309,-1.74141 z m 72.236729,0 h 5.55762 c 0.61604,0 0.85707,0.10036 0.81064,0.56924 -0.007,0.10047 -0.0399,0.201 -0.46845,1.76162 h -8.65137 l 0.1667,-0.58945 c 0.39552,-1.44005 1.01798,-1.74141 2.58486,-1.74141 z m -25.61836,3.69053 h 8.16211 l -0.26162,0.93105 c -0.42855,1.52052 -1.23821,1.96934 -2.69795,1.96934 h -5.93291 c -0.83032,0 -1.13844,-0.10713 -1.08487,-0.62959 0.0134,-0.12057 0.0475,-0.24773 0.3082,-1.15869 0.22142,-0.77031 0.79011,-1.11211 1.50704,-1.11211 z"
         style="fill:#ffffff;fill-opacity:1;fill-rule:nonzero;stroke:#ffffff;stroke-width:0.15000004;stroke-opacity:1" />
    </g>
  </g>
</svg>
